<svg id="icons_Process_Order_XS" data-name="icons/Process Order/XS" xmlns="http://www.w3.org/2000/svg" width="16" height="17" viewBox="0 0 16 17">
  <g id="Group_2916" data-name="Group 2916">
    <path id="icons8-purchase-order" d="M17.222,2a.89.89,0,0,1-1.778,0H13.667a.89.89,0,0,1-1.778,0H10.111A.89.89,0,0,1,8.333,2H6.556A.89.89,0,0,1,4.778,2H3V19H19V2ZM12.778,15.6H5.667V13.9h7.111Zm0-3.4H5.667V10.5h7.111Zm3.556,3.4H14.556V13.9h1.778Zm0-3.4H14.556V10.5h1.778Zm0-4.25H5.667V6.25H16.333Z" transform="translate(-3 -2)" fill="#999"/>
  </g>
</svg>
