<svg id="icons_Customer_XS" data-name="icons/Customer/XS" xmlns="http://www.w3.org/2000/svg" width="18" height="18" viewBox="0 0 18 18">
  <path id="icons8-male-user" d="M11,2a9,9,0,1,0,9,9A9,9,0,0,0,11,2Zm0,2.475A2.925,2.925,0,1,1,8.075,7.4,2.925,2.925,0,0,1,11,4.475ZM11,18.2a7.192,7.192,0,0,1-5.981-3.192C6.028,13.541,9.241,12.8,11,12.8s4.972.741,5.981,2.208A7.192,7.192,0,0,1,11,18.2Z" transform="translate(-2 -2)" fill="#999"/>
</svg>
